Hbase Commands

hbase shell   ---> To execute hbase shell
hbase shell commands (Basic)
1) status
hbase(main):004:0> status
7 servers, 0 dead, 3.4286 average load

2) version
hbase(main):005:0> version
1.0.0-cdh5.5.2, rUnknown, Mon Jan 25 16:26:48 PST 2016
   
3) whoami

4) table_help

5 exit or press ctrl+ c ==> to leave the HBase Shell

